Create a `tbl_now` object — tbl_now • tbl.now
…
#Like removing a column
ndata <- ndata[,-4]
#> Warning: Dropped protected column(?s): ".event_num". Returning a `tibble`
ndata
#> # A tibble: 52,987 × 6
#>    onset_week report_week gender .report_num .delay newcolumn
#>    <date>     <date>      <chr>        <dbl>  <dbl> <chr>    
#>  1 1990-01-01 1990-01-01  Male             0      0 something
#>  2 1990-01-01 1990-01-01  Female           0      0 something
#>  3 1990-01-01 1990-01-01  Female           0      0 something
#>  4 1990-01-01 1990-01-08  Female           1      1 something
#>  5 1990-01-01 1990-01-08  Male             1      1 something
#>  6 1990-01-01 1990-01-15  Female           2      2 something
#>  7 1990-01-01 1990-01-15  Female           2      2 something
#>  8 1990-01-01 1990-01-15  Female           2      2 something
#>  9 1990-01-01 1990-01-22  Female           3      3 something
#> 10 1990-01-01 1990-01-08  Female           1      1 something
#> # ℹ 52,977 more rows
…
#> # A tibble: 10 × 6
#>    onset_week report_week gender .report_num .delay newcolumn
#>    <date>     <date>      <chr>        <dbl>  <dbl> <chr>    
#>  1 1990-01-01 1990-01-01  Male             0      0 something
#>  2 1990-01-01 1990-01-01  Female           0      0 something
#>  3 1990-01-01 1990-01-01  Female           0      0 something
#>  4 1990-01-01 1990-01-08  Female           1      1 something
#>  5 1990-01-01 1990-01-08  Male             1      1 something
#>  6 1990-01-01 1990-01-15  Female           2      2 something
#>  7 1990-01-01 1990-01-15  Female           2      2 something
#>  8 1990-01-01 1990-01-15  Female           2      2 something
#>  9 1990-01-01 1990-01-22  Female           3      3 something
#> 10 1990-01-01 1990-01-08  Female           1      1 something
ndata
#> # A tibble: 52,987 × 6
#>    onset_week report_week gender .report_num .delay newcolumn
#>    <date>     <date>      <chr>        <dbl>  <dbl> <chr>    
#>  1 1990-01-01 1990-01-01  Male             0      0 something
#>  2 1990-01-01 1990-01-01  Female           0      0 something
#>  3 1990-01-01 1990-01-01  Female           0      0 something
#>  4 1990-01-01 1990-01-08  Female           1      1 something
#>  5 1990-01-01 1990-01-08  Male             1      1 something
#>  6 1990-01-01 1990-01-15  Female           2      2 something
#>  7 1990-01-01 1990-01-15  Female           2      2 something
#>  8 1990-01-01 1990-01-15  Female           2      2 something
#>  9 1990-01-01 1990-01-22  Female           3      3 something
#> 10 1990-01-01 1990-01-08  Female           1      1 something
#> # ℹ 52,977 more rows

#You can also apply all dplyr functions:
ndata %>%
  dplyr::filter(report_week <= as.Date("1991-01-02", format = "%Y-%m-%d"))
#> # A tibble: 1,981 × 6
#>    onset_week report_week gender .report_num .delay newcolumn
#>    <date>     <date>      <chr>        <dbl>  <dbl> <chr>    
#>  1 1990-01-01 1990-01-01  Male             0      0 something
#>  2 1990-01-01 1990-01-01  Female           0      0 something
#>  3 1990-01-01 1990-01-01  Female           0      0 something
#>  4 1990-01-01 1990-01-08  Female           1      1 something
#>  5 1990-01-01 1990-01-08  Male             1      1 something
#>  6 1990-01-01 1990-01-15  Female           2      2 something
#>  7 1990-01-01 1990-01-15  Female           2      2 something
#>  8 1990-01-01 1990-01-15  Female           2      2 something
#>  9 1990-01-01 1990-01-22  Female           3      3 something
#> 10 1990-01-01 1990-01-08  Female           1      1 something
#> # ℹ 1,971 more rows

#Removing an important column automatically transforms to tibble
#losing its property
suppressWarnings(
  ndata %>%
    dplyr::select(-onset_week)
)
#> # A tibble: 52,987 × 5
#>    report_week gender .report_num .delay newcolumn
#>    <date>      <chr>        <dbl>  <dbl> <chr>    
#>  1 1990-01-01  Male             0      0 something
#>  2 1990-01-01  Female           0      0 something
#>  3 1990-01-01  Female           0      0 something
#>  4 1990-01-08  Female           1      1 something
#>  5 1990-01-08  Male             1      1 something
#>  6 1990-01-15  Female           2      2 something
#>  7 1990-01-15  Female           2      2 something
#>  8 1990-01-15  Female           2      2 something
#>  9 1990-01-22  Female           3      3 something
#> 10 1990-01-08  Female           1      1 something
#> # ℹ 52,977 more rows

#Removing strata just changes the overall structure
ndata %>% dplyr::select(-gender)
#> # A tibble: 52,987 × 5
#>    onset_week report_week .report_num .delay newcolumn
#>    <date>     <date>            <dbl>  <dbl> <chr>    
#>  1 1990-01-01 1990-01-01            0      0 something
#>  2 1990-01-01 1990-01-01            0      0 something
#>  3 1990-01-01 1990-01-01            0      0 something
#>  4 1990-01-01 1990-01-08            1      1 something
#>  5 1990-01-01 1990-01-08            1      1 something
#>  6 1990-01-01 1990-01-15            2      2 something
#>  7 1990-01-01 1990-01-15            2      2 something
#>  8 1990-01-01 1990-01-15            2      2 something
#>  9 1990-01-01 1990-01-22            3      3 something
#> 10 1990-01-01 1990-01-08            1      1 something
#> # ℹ 52,977 more rows
…
